         run       event       nTopo   nIdTracks  nTauTracks       nTaus      nMuons       nElec   nTrueElec   nFakeElec       nPhot   nTruePhot   nFakePhot
      242000     3120001         247           9           2           2           1           0           0           0           0           0           0
      242000     3120002         184           6           0           0           1           0           0           0           0           0           0
      242000     3120003         424          33           3           1           3           0           0           0           0           0           0
      242000     3120004         170          10           4           1           0           0           0           0           0           0           0
      242000     3120005         409          33           5           2           3           3           0           3           4           3           1
